{
  "compilerOptions": {
      "target": "esnext",
      "module": "commonjs",
      "baseUrl": "./",
      "paths": {
        "@root/*": ["./*"],
        "@core/*": ["./libs/core/Modules/*"],
        "@app/*": ["./app/*"],
        "@config/*": ["./config/*"],
        "@themes/*": ["./themes/*"]
      }
  },
  "exclude": [
      "node_modules",
      "**/node_modules/*"
  ]
}