<svg width="32" height="32" viewBox="0 0 32 32" fill="none" xmlns="http://www.w3.org/2000/svg">
<ellipse cx="16.2822" cy="15.609" rx="15.3787" ry="15.4091" fill="#E6F9F4"/>
<path d="M11.4977 20.9167C11.6276 20.9167 11.7575 20.8687 11.86 20.766L21.429 11.1781C21.6272 10.9795 21.6272 10.6508 21.429 10.4522C21.2308 10.2536 20.9027 10.2536 20.7045 10.4522L11.1355 20.0401C10.9373 20.2387 10.9373 20.5674 11.1355 20.766C11.238 20.8687 11.3679 20.9167 11.4977 20.9167Z" fill="#24D299" stroke="#24D299"/>
<path d="M21.0667 18.3622C21.347 18.3622 21.5793 18.1293 21.5793 17.8485V10.8151C21.5793 10.5344 21.347 10.3015 21.0667 10.3015H14.0472C13.767 10.3015 13.5346 10.5344 13.5346 10.8151C13.5346 11.0959 13.767 11.3288 14.0472 11.3288H20.5541V17.8485C20.5541 18.1293 20.7865 18.3622 21.0667 18.3622Z" fill="#24D299" stroke="#24D299"/>
</svg>
