<svg width="572" height="226" viewBox="0 0 572 226" fill="none" xmlns="http://www.w3.org/2000/svg">
<g clip-path="url(#clip0_1301_878)">
<rect width="573" height="226" rx="10" fill="#015BC7"/>
<ellipse opacity="0.6" cx="59" cy="68" rx="136" ry="125" fill="#0C7BFF" fill-opacity="0.6"/>
<ellipse opacity="0.6" cx="573" cy="257" rx="136" ry="125" fill="#0C7BFF" fill-opacity="0.6"/>
</g>
<defs>
<clipPath id="clip0_1301_878">
<rect width="572" height="226" rx="10" fill="white"/>
</clipPath>
</defs>
</svg>
