<svg width="38" height="38" viewBox="0 0 38 38" fill="none" xmlns="http://www.w3.org/2000/svg">
<path opacity="0.4" d="M24.9358 14.5515C24.3833 14.5515 23.9441 14.1123 23.9441 13.5598V11.7465C23.9441 10.3582 23.3491 9.02648 22.3291 8.09149C21.2808 7.14232 19.9349 6.70315 18.5183 6.83065C16.1383 7.05732 14.0558 9.47982 14.0558 12.0015V13.2765C14.0558 13.829 13.6166 14.2682 13.0641 14.2682C12.5116 14.2682 12.0724 13.829 12.0724 13.2765V12.0015C12.0724 8.45982 14.9341 5.18732 18.3199 4.86148C20.2891 4.67732 22.1874 5.30065 23.6466 6.63232C25.0916 7.93565 25.9133 9.80565 25.9133 11.7465V13.5598C25.9133 14.1123 25.4741 14.5515 24.9358 14.5515Z" fill="#0075FF"/>
<path d="M30.2766 14.693C29.0866 13.3755 27.1316 12.738 24.27 12.738H13.73C10.8683 12.738 8.9133 13.3755 7.7233 14.693C6.34913 16.223 6.39163 18.263 6.54747 19.6797L7.53913 27.5705C7.83663 30.333 8.9558 33.1664 15.0475 33.1664H22.9525C29.0441 33.1664 30.1633 30.333 30.4608 27.5847L31.4525 19.6655C31.6083 18.263 31.6366 16.223 30.2766 14.693ZM13.9283 20.6289H13.9141C13.135 20.6289 12.4975 19.9914 12.4975 19.2122C12.4975 18.433 13.135 17.7955 13.9141 17.7955C14.7075 17.7955 15.345 18.433 15.345 19.2122C15.345 19.9914 14.7075 20.6289 13.9283 20.6289ZM23.845 20.6289H23.8308C23.0516 20.6289 22.4141 19.9914 22.4141 19.2122C22.4141 18.433 23.0516 17.7955 23.8308 17.7955C24.6241 17.7955 25.2616 18.433 25.2616 19.2122C25.2616 19.9914 24.6241 20.6289 23.845 20.6289Z" fill="#0075FF"/>
</svg>
