<svg width="40" height="40" viewBox="0 0 40 40" fill="none" xmlns="http://www.w3.org/2000/svg">
<circle cx="20" cy="20" r="19.5" stroke="#E5F0FE"/>
<path d="M25.2582 11.5833V12.7708C25.7807 12.7708 26.2795 12.9845 26.6437 13.3408C27.0237 13.7287 27.2295 14.2274 27.2295 14.7499V16.6658C27.2295 17.2516 26.9682 17.5208 26.3745 17.5208H24.8545V13.1745C24.8545 12.9528 25.0366 12.7708 25.2582 12.7708V11.5833ZM25.2582 11.5833C24.3795 11.5833 23.667 12.2958 23.667 13.1745V18.7083H26.3745C27.6253 18.7083 28.417 17.9166 28.417 16.6658V14.7499C28.417 13.8791 28.0607 13.0874 27.4907 12.5095C26.9128 11.9395 26.1291 11.5912 25.2582 11.5833C25.2662 11.5833 25.2582 11.5833 25.2582 11.5833Z" fill="#0075FF"/>
<path d="M16.5413 11.5833H15.7497C13.3747 11.5833 12.583 13.0003 12.583 14.7499V15.5416V26.6249C12.583 27.282 13.3272 27.6541 13.8497 27.2583L15.2034 26.2449C15.5201 26.0074 15.9634 26.0391 16.2484 26.3241L17.5626 27.6462C17.8713 27.9549 18.378 27.9549 18.6868 27.6462L20.0168 26.3162C20.2938 26.0391 20.7372 26.0074 21.0459 26.2449L22.3997 27.2583C22.9222 27.6462 23.6663 27.2741 23.6663 26.6249V13.1666C23.6663 12.2958 24.3788 11.5833 25.2497 11.5833H16.5413ZM20.3018 18.5103H18.7184V20.0937C18.7184 20.4183 18.4493 20.6874 18.1247 20.6874C17.8001 20.6874 17.5309 20.4183 17.5309 20.0937V18.5103H15.9476C15.623 18.5103 15.3538 18.2412 15.3538 17.9166C15.3538 17.592 15.623 17.3228 15.9476 17.3228H17.5309V15.7395C17.5309 15.4149 17.8001 15.1458 18.1247 15.1458C18.4493 15.1458 18.7184 15.4149 18.7184 15.7395V17.3228H20.3018C20.6263 17.3228 20.8955 17.592 20.8955 17.9166C20.8955 18.2412 20.6263 18.5103 20.3018 18.5103Z" fill="#0075FF"/>
</svg>
