<svg width="45" height="45" viewBox="0 0 45 45" fill="none" xmlns="http://www.w3.org/2000/svg">
<rect width="45" height="45" rx="10" fill="#1BE9AA"/>
<path d="M26.999 11.2502H17.999C14.0615 11.2502 12.374 13.5002 12.374 16.8752V28.1252C12.374 31.5002 14.0615 33.7502 17.999 33.7502H26.999C30.9365 33.7502 32.624 31.5002 32.624 28.1252V16.8752C32.624 13.5002 30.9365 11.2502 26.999 11.2502ZM17.999 22.7815H22.499C22.9603 22.7815 23.3428 23.164 23.3428 23.6252C23.3428 24.0865 22.9603 24.469 22.499 24.469H17.999C17.5378 24.469 17.1553 24.0865 17.1553 23.6252C17.1553 23.164 17.5378 22.7815 17.999 22.7815ZM26.999 28.969H17.999C17.5378 28.969 17.1553 28.5865 17.1553 28.1252C17.1553 27.664 17.5378 27.2815 17.999 27.2815H26.999C27.4603 27.2815 27.8428 27.664 27.8428 28.1252C27.8428 28.5865 27.4603 28.969 26.999 28.969ZM29.8115 19.4065H27.5615C25.8515 19.4065 24.4678 18.0227 24.4678 16.3127V14.0627C24.4678 13.6015 24.8503 13.219 25.3115 13.219C25.7728 13.219 26.1553 13.6015 26.1553 14.0627V16.3127C26.1553 17.089 26.7853 17.719 27.5615 17.719H29.8115C30.2728 17.719 30.6553 18.1015 30.6553 18.5627C30.6553 19.024 30.2728 19.4065 29.8115 19.4065Z" fill="white"/>
</svg>
