<svg width="45" height="45" viewBox="0 0 45 45" fill="none" xmlns="http://www.w3.org/2000/svg">
<rect width="45" height="45" rx="10" fill="#FF7B43"/>
<path d="M25.73 12H20.27V16.36H25.73V12Z" fill="white"/>
<path d="M27.23 12V16.36H32.87C32.36 13.61 30.33 12.01 27.23 12Z" fill="white"/>
<path d="M13 17.8601V26.1901C13 29.8301 15.17 32.0001 18.81 32.0001H27.19C30.83 32.0001 33 29.8301 33 26.1901V17.8601H13ZM25.44 26.1801L23.36 27.3801C22.92 27.6301 22.49 27.7601 22.09 27.7601C21.79 27.7601 21.52 27.6901 21.27 27.5501C20.69 27.2201 20.37 26.5401 20.37 25.6601V23.2601C20.37 22.3801 20.69 21.7001 21.27 21.3701C21.85 21.0301 22.59 21.0901 23.36 21.5401L25.44 22.7401C26.21 23.1801 26.63 23.8001 26.63 24.4701C26.63 25.1401 26.2 25.7301 25.44 26.1801Z" fill="white"/>
<path d="M18.7699 12C15.6699 12.01 13.6399 13.61 13.1299 16.36H18.7699V12Z" fill="white"/>
</svg>
