<svg width="34" height="34" viewBox="0 0 34 34" fill="none" xmlns="http://www.w3.org/2000/svg">
<path d="M24.8342 11.0074C24.7351 10.9932 24.6359 10.9932 24.5367 11.0074C22.3409 10.9366 20.5984 9.13742 20.5984 6.92742C20.5984 4.67492 22.4259 2.83325 24.6926 2.83325C26.9451 2.83325 28.7867 4.66075 28.7867 6.92742C28.7726 9.13742 27.0301 10.9366 24.8342 11.0074Z" fill="#24D299"/>
<path d="M29.4524 20.8248C27.8658 21.8873 25.6416 22.284 23.5874 22.0148C24.1258 20.8532 24.4091 19.564 24.4233 18.204C24.4233 16.7873 24.1116 15.4415 23.5166 14.2657C25.6133 13.9823 27.8374 14.379 29.4383 15.4415C31.6766 16.9148 31.6766 19.3373 29.4524 20.8248Z" fill="#24D299"/>
<path d="M9.12339 11.0074C9.22256 10.9932 9.32173 10.9932 9.42089 11.0074C11.6167 10.9366 13.3592 9.13742 13.3592 6.92742C13.3592 4.66075 11.5317 2.83325 9.26506 2.83325C7.01256 2.83325 5.18506 4.66075 5.18506 6.92742C5.18506 9.13742 6.92756 10.9366 9.12339 11.0074Z" fill="#24D299"/>
<path d="M9.27921 18.2043C9.27921 19.5784 9.57671 20.8818 10.115 22.0576C8.11754 22.2701 6.03504 21.8451 4.50504 20.8393C2.26671 19.3518 2.26671 16.9293 4.50504 15.4418C6.02088 14.4218 8.16004 14.0109 10.1717 14.2376C9.59088 15.4276 9.27921 16.7734 9.27921 18.2043Z" fill="#24D299"/>
<path d="M17.17 22.4825C17.0567 22.4683 16.9292 22.4683 16.8017 22.4825C14.195 22.3975 12.1125 20.2583 12.1125 17.6233C12.1267 14.9317 14.2942 12.75 17 12.75C19.6917 12.75 21.8734 14.9317 21.8734 17.6233C21.8592 20.2583 19.7909 22.3975 17.17 22.4825Z" fill="#24D299"/>
<path d="M12.5658 25.415C10.4266 26.8458 10.4266 29.1975 12.5658 30.6141C15.0025 32.2433 18.9975 32.2433 21.4341 30.6141C23.5733 29.1833 23.5733 26.8317 21.4341 25.415C19.0116 23.7858 15.0166 23.7858 12.5658 25.415Z" fill="#24D299"/>
</svg>
