<svg width="32" height="32" viewBox="0 0 32 32" fill="none" xmlns="http://www.w3.org/2000/svg">
<path d="M19.6399 2.66675H12.3599V8.48008H19.6399V2.66675Z" fill="#25E5FF"/>
<path d="M21.6401 2.66675V8.48008H29.1601C28.4801 4.81341 25.7735 2.68008 21.6401 2.66675Z" fill="#25E5FF"/>
<path d="M2.6665 10.48V21.5866C2.6665 26.44 5.55984 29.3333 10.4132 29.3333H21.5865C26.4398 29.3333 29.3332 26.44 29.3332 21.5866V10.48H2.6665ZM19.2532 21.5733L16.4798 23.1733C15.8932 23.5066 15.3198 23.68 14.7865 23.68C14.3865 23.68 14.0265 23.5866 13.6932 23.4C12.9198 22.96 12.4932 22.0533 12.4932 20.88V17.68C12.4932 16.5066 12.9198 15.6 13.6932 15.16C14.4665 14.7066 15.4532 14.7866 16.4798 15.3866L19.2532 16.9866C20.2798 17.5733 20.8398 18.4 20.8398 19.2933C20.8398 20.1866 20.2665 20.9733 19.2532 21.5733Z" fill="#25E5FF"/>
<path d="M10.3598 2.66675C6.22651 2.68008 3.51984 4.81341 2.83984 8.48008H10.3598V2.66675Z" fill="#25E5FF"/>
</svg>
